	
FACULTAD DE ARQUITECTURA,ARQUITECTURA,19020,10,40,20,20	10,0,500,475,728.80,569.90,120,3
FACULTAD DE ARQUITECTURA,CINE,19024,10,40,30,10,10,10,500,475,762.40,572.90,40,5
FACULTAD DE ARQUITECTURA,DISEÑO	,19022,10,40,20,20,10,10,500,475,692.10,504.60,75,4
FACULTAD DE ARQUITECTURA,GESTIÓN EN TURISMO Y CULTURA,19027,10,40,30,10,10,10,500,475,721.70,549.10,40,5
FACULTAD DE ARQUITECTURA,TEATRO,19028,10,20,40,10,20,0,500,475,762.76,574.92,20,5
FACULTAD DE CIENCIAS,INGENIERÍA  EN ESTADÍSTICA,19072,10,40,10,30,10,10,500,475,671.80,506.80,30,5
FACULTAD DE CIENCIAS,LIC. EN CIENCIAS MENCIÓN: BIOLOGÍA O QUÍMICA,19075,10,40,20,20,0,10,500,475,735.50,538.10,25,2
FACULTAD DE CIENCIAS,LIC. EN FÍSICA MENCIÓN: ASTRONOMÍA, CIENCIAS ATMOSFÉRICAS O COMPUTACIÓN CIENTÍFICA,19078,10,20,15,45,0,10,500,500,659.65,510.00,45,5
FACULTAD DE CIENCIAS,LICENCIATURA EN MATEMÁTICAS 19070,10,40,10,30,10,10,500,475,632.20,506.10,15,2
FACULTAD DE CIENCIAS DEL MAR Y DE RECURSOS NATURALES,BIOLOGÍA MARINA,19080,10,40,15,25,0,10,500,475,691.35,502.45,50,5
FACULTAD DE CIENCIAS ECONÓMICAS Y ADMINISTRATIVAS,ADMINISTRACIÓN HOTELERA Y GASTRONÓMICA,19086,10,40,20,20,10,10,500,475,731.60,500.80,60,5
FACULTAD DE CIENCIAS ECONÓMICAS Y ADMINISTRATIVAS,ADMINISTRACIÓN PÚBLICA - VALPARAÍSO,19068,10,20,35,25,10,0,500,500,723.45,574.90,75,2
FACULTAD DE CIENCIAS ECONÓMICAS Y ADMINISTRATIVAS,ADMINISTRACIÓN PÚBLICA - SANTIAGO,19005,10,20,35,25,10,0,500,500,655.60,571.45,75,2
FACULTAD DE CIENCIAS ECONÓMICAS Y ADMINISTRATIVAS,AUDITORÍA - VALPARAÍSO,19062,10,40,20,15,15,15,500,475,725.45,509.65,100,5
FACULTAD DE CIENCIAS ECONÓMICAS Y ADMINISTRATIVAS,AUDITORÍA - SANTIAGO,19093,10,40,20,15,15,15,500,475,729.65,500.55,60,5
FACULTAD DE CIENCIAS ECONÓMICAS Y ADMINISTRATIVAS,AUDITORÍA VESPERTINO - VALPARAÍSO,19069,10,40,20,15,15,15,500,475,700.15,504.55,20,0
FACULTAD DE CIENCIAS ECONÓMICAS Y ADMINISTRATIVAS,INGENIERÍA COMERCIAL - VIÑA DEL MAR,19060,10,40,10,30,10,0,500,500,705.20,578.10,150,12
FACULTAD DE CIENCIAS ECONÓMICAS Y ADMINISTRATIVAS,INGENIERÍA COMERCIAL - SANTIAGO,19095,10,40,10,30,10,0,500,500,647.30,500.90,125,12
FACULTAD DE CIENCIAS ECONÓMICAS Y ADMINISTRATIVAS,INGENIERÍA EN INFORMACIÓN Y CONTROL DE GESTIÓN,19083,10,40,10,30,10,10,500,475,722.80,501.80,50,5
FACULTAD DE CIENCIAS ECONÓMICAS Y ADMINISTRATIVAS,INGENIERÍA EN NEGOCIOS INTERNACIONALES - VIÑA,19088,10,30,20,30,10,10,500,475,693.60,529.20,80,5
FACULTAD DE CIENCIAS ECONÓMICAS Y ADMINISTRATIVAS,INGENIERÍA EN NEGOCIOS INTERNACIONALES - STGO,19089,10,30,20,30,10,10,500,475,694.70,511.80,35,5
FACULTAD DE DERECHO Y CIENCIAS SOCIALES,DERECHO,19030,10,25,20,20,25,0,500,500,737.30,628.90,135,5
FACULTAD DE DERECHO Y CIENCIAS SOCIALES,TRABAJO SOCIAL,19031,20,30,20,20,10,0,500,475,700.00,556.40,78,2
FACULTAD  DE FARMACIA,QUÍMICA Y FARMACIA,19090,10,40,20,20,0,10,500,500,760.80,620.50,60,2
FACULTAD  DE FARMACIA,NUTRICIÓN Y DIETÉTICA,19091,10,40,20,20,0,10,500,500,770.40,608.90,60,2
FACULTAD  DE HUMANIDADES,PEDAGOGÍA EN FILOSOFÍA,19010,10,40,20,10,20,0,500,500,718.90,505.70,30,2
FACULTAD  DE HUMANIDADES,PEDAGOGÍA EN HISTORIA Y CIENCIAS SOCIALES,19011,10,40,20,10,20,0,500,500,741.90,552.60,70,3
FACULTAD  DE HUMANIDADES,PEDAGOGÍA EN MÚSICA,19015,10,40,25,15,10,0,500,500,619.60,529.95,40,2
FACULTAD  DE HUMANIDADES,SOCIOLOGÍA,19012,10,40,20,15,15,0,500,475,736.35,546.05,75,2
FACULTAD  DE INGENIERÍA,INGENIERÍA AMBIENTAL,19074,10,30,10,40,0,10,500,500,740.70,547.70,55,4
FACULTAD  DE INGENIERÍA,INGENIERÍA CIVIL,19021,10,20,15,45,10,10,500,500,659.10,523.05,90,3
FACULTAD  DE INGENIERÍA,INGENIERÍA CIVIL AMBIENTAL,19018,10,20,10,45,0,15,500,500,SICARRERA,NUEVA,35,2
FACULTAD  DE INGENIERÍA,INGENIERÍA CIVIL BIOMÉDICA,19076,10,30,10,40,10,10,500,500,749.80,584.00,60,2
FACULTAD  DE INGENIERÍA,INGENIERÍA CIVIL INDUSTRIAL - VALPARAÍSO,19052,10,30,10,4010,10,500,500,690.70,582.20,110,10
FACULTAD  DE INGENIERÍA,INGENIERÍA CIVIL INDUSTRIAL - SANTIAGO,19094,10,30,10,40,10,10,500,500,691.00,563.10,90,10
FACULTAD  DE INGENIERÍA,INGENIERÍA CIVIL INFORMÁTICA,19085,10,30,10,40,10,10,500,500,651.70,541.6,75,5
FACULTAD  DE INGENIERÍA,INGENIERÍA CIVIL MATEMÁTICA,19019,10,20,10,45,0,15,500,500,SICARRERA,NUEVA,15,2
FACULTAD  DE INGENIERÍA,INGENIERÍA CIVIL OCEÁNICA,19081,10,40,10,30,10,10,500,475,626.60,501.20,30,2
FACULTAD  DE INGENIERÍA,INGENIERÍA EN CONSTRUCCIÓN,19026,10,25,10,45,10,10,500,475,674.55,544.10,80,5														
FACULTAD  DE MEDICINA,EDUCACIÓN PARVULARIA,19037,10,40,30,10,10,10,500,500,652.10,530.20,35,2
FACULTAD  DE MEDICINA,ENFERMERÍA - REÑACA,19041,10,40,25,15,0,10,500,500,773.10,681.40,75,3
FACULTAD  DE MEDICINA,ENFERMERÍA - SAN FELIPE,19042,10,40,25,15,0,10,500,500,729.85,645.80,40,2
FACULTAD  DE MEDICINA,FONOAUDIOLOGÍA  - REÑACA,19046,10,40,30,10,0,10,500,500,729.70,633.70,45,2
FACULTAD  DE MEDICINA,FONOAUDIOLOGÍA - SAN FELIPE,19044,10,40,30,10,0,10,500,500,664.60,566.10,40,2
FACULTAD  DE MEDICINA,KINESIOLOGÍA,19043,10,30,20,20,0,20,500,500,745.95,602.60,80,2
FACULTAD  DE MEDICINA,MEDICINA - REÑACA,19040,10,30,20,20,0,20,600,600,815.90,762.50,72,2
FACULTAD  DE MEDICINA,MEDICINA - SAN FELIPE,19039,10,30,20,20,0,20,600,600,764.10,751.30,42,2
FACULTAD  DE MEDICINA,OBSTETRICIA Y PUERICULTURA - REÑACA,19047,10,40,30,10,0,10,500,500,778.10,691.10,75,2
FACULTAD  DE MEDICINA,OBSTETRICIA Y PUERICULTURA - SAN FELIPE,19036,10,40,30,10,0,10,500,500,723.50,670.20,25,2
FACULTAD  DE MEDICINA,PSICOLOGÍA,19045,10,30,30,20,10,0,500,500,700.20,623.80,80,3
FACULTAD  DE MEDICINA,TECNOLOGÍA MÉDICA - REÑACA,19049,10,40,25,,15,0,10,500,500,756.00,697.20,55,2
FACULTAD  DE MEDICINA,TECNOLOGÍA MÉDICA - SAN FELIPE,19048,10,40,25,15,0,10,500,500,819.15,649.10,40,2
FACULTAD  DE ODONTOLOGÍA,ODONTOLOGÍA,19050,10,40,20,20,0,10,500500,762.10,690.50,72,2
